{
    "data":[
        {
            "name":"喝酒",
            "shouldEat":{
            "grain":["全麦面粉","糙米","燕麦","小米"],
            "bean":["豆腐","豆腐干","豆腐皮","绿豆","赤豆","黑豆","白扁豆"],
            "meat":["鸭肉","羊肉","鸡肉","猪血","猪肝","鸡肝"],
            "egg":["鸡蛋","鸭蛋"],
            "seafood":["鳗鱼","鲫鱼","带鱼","黄鱼","银鱼","牡蛎","蛤蜊","牡蛎","淡菜","文蛤"],
            "veggie":["韭菜","蒜苗","黄花菜","豌豆苗","竹笋","萝卜","香菇","木耳","银耳","鱼腥草",
                      "金针菇","杏鲍菇","平菇","猴头菇"],
            "fruit":["橘子","荔枝","葡萄","猕猴桃","大枣","桑椹","西瓜","柠檬","李子","香蕉"],
            "nut":["开心果","核桃","乌梅"],
            "drink":["牛奶","豆浆","蜂蜜"]
            },
            "shouldNotEat":["姜","大葱","榴莲","辣椒","",""],
            "tea":[""],
            "foodTreatment":[""],
            "tips":[
                "喝酒过多，容易引起进食过量，所以，喝酒的时候，要仔细判断自己到底喝了多少量，防止摄入过多的酒精和卡路里。",
                "喝酒之前先吃点精益蛋白或健康脂肪。空腹的时候，酒精会被吸收得很快。不过，如果在喝酒之前，先补充一些精益蛋白或健康脂肪，就可以减缓酒精的吸收速度。",
                "引起酒醉和酒后暴食的最大诱因之一就是喝得太快太急。为了减慢喝酒的速度，可以在喝酒的同时预备一大杯水，每喝一口酒，就补充一部分水分。这个简单的喝酒技巧可以让酒精的摄入量降低至一半。",
                "防止酒醉和酒后暴食的最佳方法就是彻底杜绝饮酒。为了让自己可以抵抗住酒精的诱惑，你可以向一起喝酒的人进行自荐，自愿充当大家酒后的代驾司机，让大家一起监督你不要喝酒。",    "人体对酒精的吸收速度特别快，酒精被吸收后，主要是肝脏来分解处理它们。仅有2-10%的酒精通过肾脏、肺和汗液等原形排出体外。也就是说，你喝的酒精90%以上需要人体分解处理，只有不足10%是以酒精的形式排除体外。所以说喝酒给人体，特别是肝脏带来巨大的工作量。",
                "醉酒是酒精的“急性中毒”，主要是喝急了、喝多了，大量的酒精快速被人体吸收，但是肝脏没有办法跟上吸收的节奏，造成乙醇和乙醛在相当长的时间内存在血液中，对各个身体器官进行侵害。",
                "少喝、慢喝，喝酒精含量低的酒。酒精摄入绝对量少，速度慢，这可以给肝脏充足的时间来处理酒精，用6个小时喝掉半斤酒和用1个小时喝掉，肯定感觉完全不一样。",
                "可以想办法限制酒精的吸收。通过吃肥肉、喝牛奶等方式，用脂肪、牛奶等在胃壁上形成一层屏障，降低胃对酒精的吸收。所以很多人会在喝酒前喝酸奶，就是这个道理。",
                "也可以喝酒前吃纤维素类的药片，纤维素遇水后迅速膨胀，释放出大量阳离子可以把酒精包裹起来不进入消化循环直接排出体外，减少酒精对肝脏和身体的伤害。",
                "长期过量饮酒，会加速硒在体内的代谢，致使肝脏受损，严重者会导致肝硬化、肝癌。",
                "长期过量饮酒，会引起肝脏与肾脏内硒的流失，导致机体各器官硒的比例失调，若不及时补充，将导致心、肝、肺、脑等多个器官硒的流失，严重影响生殖能力与身心健康。定时定量补硒可加速酒精代谢分解，解除酒后不适，进而保护肝脏，使病症逐渐得到恢复。",
                "人体的肝脏是微量元素仓库，最重要的人体必需微量元素，硒和锌在肝脏中很丰富，酗酒能促进人体硒、锌大量排泄引起酒精肝、脂肪肝、肝纤维化、肝硬化。",
                "饮酒前服用硒制品可减少乙醇对机体的损伤，保护肝脏；如果饮酒过量，可适当加服硒量，能减轻乙醇对肝细胞的损害，有助于恢复肝脏的正常功能。",
                "在饮酒之前，如果喝些芦荟汁，对预防头痛和恶心、脸红等症状很有效。此外，芦荟中的苦味成分芦荟素有健胃作用，对治疗宿醉引起的反胃和恶心等，简直是特效药。",
                "用食醋烧1碗酸汤，服下。食醋1小杯（20～25亳升），徐徐服下。食醋能解酒，主要是由于酒中的乙醇与食醋中的有机酸能发生化学反应，降低乙醇浓度，从而减轻了酒精的毒性。",
                "饮酒过量欲恶心呕吐者，立即口服Vc片6～10片。Vc有助于清除血中的酒精。饮酒者服用Vc片越多，酒精消失越快。饮酒前一次口服Vc片6~10片，还可预防酒精中毒。",
                "B族维生素：估计饮酒多时，提前服用维生素B族直至应酬渐少，以保护肝脏。也可有意识地多吃富含维生素B族的动物肝脏、猪牛羊肉，蛋黄、蔬菜、燕麦等粗粮，以提高体内Vb族含量。"
            ]
        },
        {
            "name":"抽烟",
            "shouldEat":{
            "grain":["全麦面粉","糙米","燕麦","小米"],
            "bean":["豆腐","豆腐干","豆腐皮","绿豆","赤豆","黑豆","白扁豆"],
            "meat":["鸭肉","猪血"],
            "egg":["鸡蛋","鸭蛋"],
            "seafood":["海蜇"],
            "veggie":["丝瓜","藕","冬瓜","竹笋","茼蒿","紫菜","海带","油菜","空心菜","银耳","百合","山药"],
            "fruit":["梨","柿子","马蹄","西瓜","无花果","柚子"],
            "nut":["开心果","核桃","杏仁"],
            "drink":["牛奶","豆浆","蜂蜜"]
            },
            "shouldNotEat":["姜","大葱","榴莲","辣椒"],
            "tea":[""],
            "foodTreatment":[""],
            "tips":[
                "香烟中的致癌物质—镉，对硒有强烈的排斥作用，长期抽烟的人会引起硒的缺乏免疫功能下降，肺癌患病率要高于不吸烟者。长期吸烟者需要多吃含硒丰富的食物，如动物肝脏、海藻及虾等。",
                "吸烟损害向你心脏供血的冠状动脉。它会使动脉变窄，它还会加大动脉堵塞的风险，从而导致心脏病发作。你一旦戒烟，你的身体便开始自我修复;一年后，心脏病发作的机会要减少一半。",
                "电子烟的短期和长期健康影响及安全性仍是未知数，可能有害，需要慎用。",
                "三手烟是指烟民在吸烟后残留在衣服、墙壁、地毯、家具等表面的烟草烟残留物。其对儿童的危害尤甚，因儿童尤其容易在地上爬或接触各种被污染的物体，可能导致儿童呼吸系统问题、重 金属中毒等。所以有婴幼儿的家庭尽量在室内禁烟。",
                "有充分证据说明二手烟暴露可导致婴儿猝死综合征。出生后有被动吸烟的婴儿发生婴儿猝死综合征的风险是没有被动吸烟的婴儿的3.5倍。所以有婴儿的家庭对吸烟的管理尤其要慎重。",        "烟气中的某些化合物可以使维生素A、B、C、E等的活性大为降低，并使体内的这些维生素得到大量的消耗。因此，吸烟者宜经常多吃一些富含这些维生素的食物，如牛奶、胡萝卜、花生、玉米面、豆芽、白菜、植物油等。", "常年吸烟的人肺部含有很多尼古丁、焦油等多种有害物质，会造成多种呼吸疾病。硒能有效清除体内产生的各种自由基，研究发现，每日补充200微克硒，癌症发病率和死亡率明显降低。其中，肺癌发病率降低最明显，达50%以上。",
                "吸烟的人应多喝茶。茶能利尿、解毒，能使烟中的毒素随尿液排出，降低烟对人的毒害，茶叶中的茶多酚还有抑制致癌物质的作用。",
                "在饮酒、吃饭的同时或随后的一段时间内，最好不要吸烟，否则会增加人体对尼古丁及其他有害成分对吸收。",
                "吸烟人士应多吃降胆固醇的食物，如牛奶、鱼类、豆制品及富含纤维的食物。因为吸烟可使血管中的胆固醇及脂肪沉积量加大，大脑供血减少，导致脑萎缩。",
                "吸烟者应经常喝牛奶。牛奶除了可以给吸烟者补充所需的多种维生素、降低胆固醇、降低血压外，还能明显降低吸烟者支气管发炎的可能性。另外，牛奶还有降低吸烟者的癌症病死率及减轻化疗副作用的功效。",
                "吸烟者应多吃含维生素C的食物，如水果蔬菜等，因为维生素C对消除人体内的尼古丁，提高细胞的抵抗力，保持血管弹性具有很大作用。",
                "维生素B2能够分解焦油里的有害物，而纤维素可将分解物排出体外。因此，吸烟者还应多吃些富含维生素B2的食物如动物肝脏、蛋、乳类、香菇、花生、瘦肉、麦子、菠菜等，以及多纤维素的蔬菜和水果。 "
            ]
        },
        {
            "name":"久坐",
            "shouldEat":{
            "grain":["全麦面粉","糙米","燕麦","小米","薏仁"],
            "bean":["豆腐","豆腐干","豆腐皮","绿豆","赤豆","黑豆","白扁豆","黄豆","豌豆"],
            "meat":["鹌鹑","鹅肉","鸽肉","牛肉"],
            "egg":["鸡蛋","鸽蛋"],
            "seafood":["鲫鱼"],
            "veggie":["木耳","海带","菠菜","芹菜","土豆","山药","胡萝卜","香菇","莲子","菱角","蘑菇","红薯","大枣",
                      "茄子","油菜","紫菜","萝卜","洋葱","佛手瓜","藕","西兰花"
                      ],
            "fruit":["西瓜","无花果","柚子","樱桃","荔枝","椰子","葡萄","草莓","芒果","番木瓜","金桔","橙子","桃","李"],
            "nut":["杏仁","黑芝麻","核桃"],
            "drink":["牛奶","豆浆","蜂蜜"]
            },
            "shouldNotEat":["姜","大葱","榴莲","辣椒","槟郎","空心菜","苦瓜","黄瓜","绿豆","虾","香蕉","鸭肉","鸭血","松花蛋",
                            "梨","荸荠","菊花","山楂","香菜","鳗鱼","鱼籽","蚕豆","栗子","柿子","螃蟹","香蕉","羊肉","辣椒"],
            "tea":[""],
            "foodTreatment":[""],
            "tips":[
                "坐着的时候弯腰驼背、脖子前伸，时间长了会出现酸痛甚至损伤。所以，尽量提醒自己抬头挺胸，保持正确的坐姿。如果做不到一直抬头挺胸的端正坐姿，也可以尝试偶尔尝试一下站姿，还能避免一下久坐的危害。",
                "身体活动对于“久坐族”而言尤为重要。减少坐着的时间是个好的开始，但还不够：最重要的是“久坐族”应改变生活方式，寻找或创造更多日常活动的机会。",
                "每周应从事至少150分钟的中等强度身体活动，或一周至少75分钟的高强度活动，或中等强度和高强度活动综合起来能减少或有效消除久坐所引发的心血管疾病及总体死亡风险。",
                "转头。长时间伏案工作，身体会变得紧绷，脑袋变沉，思维停滞。这时，可以慢慢转转头，并向肩侧用力10次左右。这个动作可以增加大脑血液供应，使头脑变得清醒。",
                "叩腰。适当叩腰能够放松腰部，缓解疲劳。双手握空心拳，然后用拳眼，有节奏地叩击腰部。力道要由轻到稍重，手法要平稳。",
                "踮脚。将脚后跟踮起来，只用脚尖着地，两腿上下抖动，能使肌肉不停地收缩和放松，有利于促进下肢血液回流。",
                "伸展。站立或坐着，双手五指交叉，掌心向外，举过头顶，尽力向上方伸展，拉伸腰部。在保持平衡的情况下，向左或向右弯曲，拉伸对侧肢体。",
                "久坐族最好养成每一小时就站起来走一走的好习惯，并利用生活中的机会锻炼身体。如：吃完午饭后，约几个同事绕着公司的楼走走；上下班不坐电梯，爬楼梯等。"
            ]
        },
        
        
}