{
    "data":[
        {
            "name":"立春",
            "weather":[
                "风"
            ],
            "shouldEat":{
                "grain":[],
                "bean":[],
                "meat":[],
                "egg":[],
                "seafood":[],
                "veggie":["荠菜","春笋"],
                "fruit":[],
                "nut":[],
                "drink":[]
            },
            "shouldNotEat":["羊肉","狗肉","辣椒","花椒","胡椒"],
            "exercise":[
                "可做升阳操。早上梳头100下，傍晚走路运动半小时。可以升发阳气，防风邪。" 
            ],
            "healthPolicy":[
                "补脾",
                "疏肝",
                "补阳"
            ],
            "meridian":[
                "足少阳胆经"
            ],
            "meridianMethod":"具体方法：可平坐亦可站立，手握空拳，自臀部环跳穴开始，沿大腿外侧从上往下敲打至外脚踝上方为一次，每天敲左右大腿各100次。力度要适中，可随时随地进行操作，不必拘泥。",
            "tips":[
                "早春过后，气候由寒转暖，细菌、病毒活力增强，容易侵犯人体而致病。所以老人在饮食上应摄取足够的维生素和无机盐，如硒产品，以增加免疫能力。",
                "立春昼夜温度差，要特别注意防风御寒、养阳敛阴，衣服不可顿减，遵循“春捂秋冻”的原则。",
                "立春宜晚睡早起，适合到室外多运动，舒形展体，使一天精力更加充沛。",
                "立春饮食忌过于酸涩，宜清淡可口，以养脾气。忌油腻、忌生冷，更不宜进食大热大辛之品，以免助热生火。",
                "立春梳头益处多。春天，大自然阳气萌生，人体的阳气也有向上向外升发的特点。春天梳头正是顺应天时春季养生强身的要求，能通达阳气、宣行郁滞、疏利 气血，壮健身体。",
                "立春后其气候特征是以风气为主令，而风邪既可单独作为致病因素，也常与其他邪气兼夹为病。这节气内特别注意防范感冒、流行性的传染病、风湿病和心脏血管疾病等。" 
            ]
        },
        {
            "name":"雨水",
            "weather":[
                "风"
            ],
            "shouldEat":{
                "grain":[],
                "bean":[],
                "meat":[],
                "egg":[],
                "seafood":[],
                "veggie":["茼蒿","菠菜"],
                "fruit":[],
                "nut":[],
                "drink":[]
            },
            "shouldNotEat":["羊肉","狗肉","辣椒","花椒","胡椒"],
            "exercise":[
                 "可做预防感冒操。按摩风池穴：位于脖子后枕骨下两侧凹陷处，左右各按摩100下。可预防及改善风寒感冒。"
            ],
            "healthPolicy":[
                "补脾",
                "祛湿"
            ],
            "accuPoint":[
                "足三里",
                "太冲穴"
            ],
            "meridian":[
                "足少阳胆经"
            ],
            "meridianMethod":"具体方法：可平坐亦可站立，手握空拳，自臀部环跳穴开始，沿大腿外侧从上往下敲打至外脚踝上方为一次，每天敲左右大腿各100次。力度要适中，可随时随地进行操作，不必拘泥。",
            "tips":[
                "推搓两肋，疏肝气。即双手按腋下，顺肋骨间隙推搓至胸前两手接触时返回，来回推搓30次。以双肋部位有温热感为佳。",
                "雨水季节，是全年寒潮过程出现最多的时节之一，天气变化无常，容易引起情绪波动，对高血压、心脏病、哮喘患者更是不利。人们应采取精神调摄养生锻炼法，心开胸阔,情绪乐观，且要戒郁怒以养性。",
                "雨水季节，寒热交替频繁，所以更应重视保健，如果过食辛热助火之品，一些旧病就会一触即发，如：偏头病、高血压等。",
                "雨水时节空气湿润，又不燥热，是养生的好时机，当然调养脾胃应首当其冲。宜多吃新鲜的蔬菜、水果，以补充人体的水分，少食油腻之品，也宜气温湿冷时以炖汤养脾胃。",
                "春天宜吃富含蛋白质、矿物质、维生素（特别是B族维生素）的食品，特别是各种黄绿色蔬菜。",
                "雨水时节，人体的肝阳、肝火、肝风会随着春季的阳气升发而上升，所以更应特别注意肝气的疏泄条达。养生者亦须振奋精神、勃发朝气，志蓄于心，身有所务。"
            ]
        },
        {
            "name":"惊蛰",
            "weather":[
                "风"
            ],
            "shouldEat":{
                "grain":[],
                "bean":[],
                "meat":[],
                "egg":[],
                "seafood":[],
                "veggie":["豌豆苗","黄豆芽"],
                "fruit":[],
                "nut":[],
                "drink":[]
            },
            "shouldNotEat":["羊肉","狗肉","辣椒","花椒","胡椒"],
            "exercise":[
                  "春季可做明目操。按摩太冲穴︰位于脚的大姆指与食指缝延伸到脚背，骨头凹陷处，按压100下，每日1~2次。可缓解疲劳，改善睡眠品质，避免腹胀。"
            ],
            "healthPolicy":[
                "祛湿",
                "润肺"
            ],
            "accuPoint":[
                "天枢穴",
                "上巨虚"
            ],
            "meridian":[
                "足少阳胆经"
            ],
            "meridianMethod":"具体方法：可平坐亦可站立，手握空拳，自臀部环跳穴开始，沿大腿外侧从上往下敲打至外脚踝上方为一次，每天敲左右大腿各100次。力度要适中，可随时随地进行操作，不必拘泥。",
            "tips":[
                "常伸懒腰身体好。春困时伸个懒腰，马上会觉得全身舒展、精神爽快。 ",
                "惊蛰时节易出现春困，专家忠告，春困不是病，别让春困影响人的正常心理。有研究精神病的学者把这样的“气象病”看作是现代社会一种独特的文明病。",
                "惊蛰时节天气开始转暖，可踏青游玩、寻山问柳、陶冶情性，这样可使气血通畅，精神旺盛。",
                "惊蛰转暖，人体的新陈代谢旺盛，饮食宜甘而温，富含营养。",
                "春季温暖多风，适于细菌、病毒等繁殖传播，所以一定要讲究卫生、勤洗晒衣被、除虫害、开窗通风，提高防御能力。",
                "初春锻炼小贴士：老年人应在太阳初升后外出锻炼；故晨练前应喝些热饮料，如牛奶、蛋汤、咖啡、麦片等；春季锻炼不要顶风跑，更不宜脱衣露体锻炼；运动量一定要量力而行；锻炼前应轻柔地活动躯体，防止因骤然锻炼而诱发意外事故。"
            ]
        },
        {
            "name":"春分",
            "weather":[
                "风"
            ],
            "shouldEat":{
                "grain":[],
                "bean":[],
                "meat":[],
                "egg":[],
                "seafood":[],
                "veggie":["蒜苗","莴苣"],
                "fruit":[],
                "nut":[],
                "drink":[]
            },
            "shouldNotEat":["羊肉","狗肉","辣椒","花椒","胡椒"],
            "exercise":[
                "经络运动：从左手到右手逐个按揉手指九遍或九的倍数，然后捋六遍。"
            ],
            "healthPolicy":[
                "养肝",
                "补肾"
            ],
            "accuPoint":[
                "天枢穴",
                "血海穴"
            ],
            "meridian":[
                "足少阳胆经"
            ],
            "meridianMethod":"具体方法：可平坐亦可站立，手握空拳，自臀部环跳穴开始，沿大腿外侧从上往下敲打至外脚踝上方为一次，每天敲左右大腿各100次。力度要适中，可随时随地进行操作，不必拘泥。",
            "tips":[
                "春分时节，人体血液正处于旺盛时期，激素水平也处于相对高峰期，此时易发常见的非感染性疾病有高血压、月经失调、痔疮及过敏性疾病等。",
                "春分时节的饮食调养，应当选择能够保持机体功能协调平衡的膳食，禁忌偏热、偏寒等的饮食误区，如在烹调鱼、蟹等寒性食物时，佐以葱、姜、酒类温性调料，以防菜肴性寒偏凉。",
                "春分时节在起居方面要坚持适当锻炼、定时睡眠、定量用餐，有目的地进行调养，方可达到养生的最佳效果。",
                "由于春分节气平分了昼夜、寒暑，人们在保健养生时应注意保持人体的阴阳平衡状态。"
            ]
        },
        {
            "name":"清明",
            "weather":[
                "暑"
            ],
            "shouldEat":{
                "grain":[],
                "bean":[],
                "meat":[],
                "egg":[],
                "seafood":[],
                "veggie":["马兰头","韭黄"],
                "fruit":[],
                "nut":[],
                "drink":[]
            },
            "shouldNotEat":["羊肉","狗肉","辣椒","花椒","胡椒"],
            "exercise":[
                 "可做疏肝养胆操。按摩丘墟穴，位于足外踝骨的前缘，每日早晚各一次，每次100下。可以生发阳气，提振精神。"
            ],
            "healthPolicy":[
                "养肝",
                "润肺"
            ],
            "accuPoint":[
                "太冲穴",
                "足三里",
                "三阴交"
            ],
            "meridian":[
                "足少阳胆经"
            ],
            "meridianMethod":"具体方法：可平坐亦可站立，手握空拳，自臀部环跳穴开始，沿大腿外侧从上往下敲打至外脚踝上方为一次，每天敲左右大腿各100次。力度要适中，可随时随地进行操作，不必拘泥。",
            "tips":[
                "老年人应多在晴日作深呼吸，享受阳光，对身体极为有益。晒太阳窍门是：早晨，面向东方，做深呼吸，伸展双臂，让氧气从口鼻及皮肤上的毛孔和手心的劳宫穴进入身体。正午，日头当顶时，于室外站立，做深呼吸，让日精从口鼻及头顶百会穴进入身体。傍晚，日落前，面对夕阳做深呼吸，让阳光、氧气从口鼻及皮肤上的毛孔进入身体。",
                "清明节气，肝脏处于旺盛的状态，要避免过度补肝。可多吃些柔肝养肺的食品，如：荠菜，益肝和中；菠菜，利五脏、通血脉。",
                "清明时节，扫墓踏青，如果春游出现心悸、乏力多汗、头晕眼花等症状，应尽早休息，切忌勉强。",
                "清明时节的中后期全是清静明朗的气候，可以随着明媚的阳光而多到户外运动了，如晨运、登山。古人谓之“踏青”也是指在这段时间进行的，且宜加大运动量。",
                "清明时节应多开窗，保持室内通风、空气清新。",
                "缺乏B族维生素与饮食过量是引发春困的重要原因，所以要多食富含维生素B族的食品，不要过量饮食。"
            ]
        },
        {
            "name":"谷雨",
            "weather":[
                "暑"
            ],
            "shouldEat":{
                "grain":[],
                "bean":[],
                "meat":[],
                "egg":[],
                "seafood":[],
                "veggie":["芦笋","马齿苋"],
                "fruit":[],
                "nut":[],
                "drink":[]
            },
            "shouldNotEat":["羊肉","狗肉","辣椒","花椒","胡椒"],
            "exercise":[
                 "可做预防感冒操。按摩风池穴：位于脖子后枕骨下两侧凹陷处，左右各按摩100下。可预防及改善风寒感冒。"
            ],
            "healthPolicy":[
                "祛湿",
                "养胃"
            ],
            "accuPoint":[
                "太冲穴",
                "迎香穴"
            ],
            "meridian":[
                "足少阳胆经"
            ],
            "meridianMethod":"具体方法：可平坐亦可站立，手握空拳，自臀部环跳穴开始，沿大腿外侧从上往下敲打至外脚踝上方为一次，每天敲左右大腿各100次。力度要适中，可随时随地进行操作，不必拘泥。",
            "tips":[
                "起夜建议喝杯水。",
                "冷水搓鼻翼有助于防治鼻炎。",
                "按照中医“春养肝”的观点，谷雨时要 抓紧时机调理肝血。饮食重点在养肝清肝、 滋养明目。",
                "春季是精神疾病的高发季节，在春季的最后一个节气谷雨，人们除了通过精神养生保健的方法来调节情绪外，还可以食用一些能够调节情绪的食物，如多吃含维生素B的食物，如胡萝卜、橘子、粗粮等。",
                "谷雨转暖，容易发生流感，对付流感目前还没有特效药物，抗病毒的西药及一些 中草药对流感的预防和早期治疗有一定作用，如有需要，应在医生指导下使用。",
                "谷雨虽转暖，但应该注意不可过早吃冷饮等食品，以避免伤胃损阳。",
                "春天是新茶上市的季节。茶宜常饮，但不宜过浓、过量。淡茶温饮，最利健康。",
                "欣赏花卉可以养生：如茉莉花香具有理气解郁的作用，扼子花香对肝胆疾患的人有辅助疗效，天竺葵的香味可以平喘，丁香花的芳香对牙痛病人有良好的安神止痛作用。"
            ]
        },
        {
            "name":"立夏",
            "weather":[
                "暑"
            ],
            "shouldEat":{
                "grain":[],
                "bean":[],
                "meat":[],
                "egg":[],
                "seafood":[],
                "veggie":["芹菜","苋菜"],
                "fruit":[],
                "nut":[],
                "drink":[]
            },
            "shouldNotEat":["羊肉","狗肉","辣椒","花椒","牛肉","鸡肉","鹅肉","胡椒","韭菜"],
            "exercise":[
                "夏季可以做健肠操。一手伸直向前，另一手握拳，轻敲手臂由手腕到肩膀处，约50-100下，再换另一边。可以改善过敏、皮肤、便秘症状。"
            ],
            "healthPolicy":[
                "养心",
                "清火"
            ],
            "accuPoint":[
                "大陵穴",
                "劳宫穴",
                "内关穴"
            ],
            "meridian":[
                "手少阴心经"
            ],
            "meridianMethod":"具体方法：可平坐亦可站立，手握空拳，自臀部环跳穴开始，沿大腿外侧从上往下敲打至外脚踝上方为一次，每天敲左右大腿各100次。力度要适中，可随时随地进行操作，不必拘泥。",
            "tips":[
                "立夏节气常常衣单被薄，即使体健之人也要谨防外感，一旦患病不可轻易运用发汗之剂，以免汗多伤心。",
                "老年人更要注意避免 气血瘀滞，以防心脏病的发作。",
                "立夏，天气变热，心脏的工作强度日渐增大，饮食应以养“心”为主，多吃祛暑益气、生津止渴、养阴清热的食品，如新鲜果蔬等。",
                "老年人忌吃煎爆、油腻食物。",
                "患有低血压及血液循环系统有障碍，或由于脑血管硬化变窄而经常出现头晕的人以及65岁以上的老人不适宜过多午睡。",
                "立夏正当春夏交替之际，应早睡早起，多沐浴阳光，注意情志的调养，保持肝气的疏泄，否则会伤及心气，以致秋冬季节易生疾病。",
                "立夏是儿童发育最快的时候，日常生活饮食要及时补充钙质、维生素及食物营养，更要注意儿童和青少年的衣着和体育锻炼。"
            ]
        },
        {
            "name":"小满",
            "weather":[
                "暑"
            ],
            "shouldEat":{
                "grain":[],
                "bean":[],
                "meat":[],
                "egg":[],
                "seafood":[],
                "veggie":["青椒","油麦菜"],
                "fruit":[],
                "nut":[],
                "drink":[]
            },
            "shouldNotEat":["羊肉","狗肉","辣椒","花椒","牛肉","鸡肉","鹅肉","胡椒","韭菜"],
            "exercise":[
                "每天适量慢跑或快走。"
            ],
            "healthPolicy":[
                "祛湿",
                "清火"
            ],
            "accuPoint":[
                "血海穴",
                "丰隆穴",
                "阴陵泉",
                "中脘穴",
                "足三里",
                "承山穴",
                "天枢穴",
                "合谷穴"
            ],
            "meridian":[
                "手少阴心经"
            ],
            "meridianMethod":"具体方法：可平坐亦可站立，手握空拳，自臀部环跳穴开始，沿大腿外侧从上往下敲打至外脚踝上方为一次，每天敲左右大腿各100次。力度要适中，可随时随地进行操作，不必拘泥。",
            "tips":[
                "按未病先防的养生观，灸疗时要适当增加艾灸时间，使寒湿之气从汗而解。",
                "小满节气中气温明显増高，雨量增多，下雨后，气温会急剧下降，要注意添加衣服，不要着凉受风而患感冒。",
                "夏天天气闷热潮湿，正是皮肤病发作的季节。预防皮肤病要做到皮肤干燥清爽，不穿潮湿衣物，保持衣服干净清洁。",
                "小满是皮肤病的易发期，所以饮食调养宜以清爽清淡为主，常吃具有清利湿热作用的食物，如赤小豆、薏苡仁、绿豆等。",
                "时至小满，“春困夏乏”，使人精神不易集中，应经常到户外活动，吸纳大自然清阳之气，以满足人体各种活动的需要。"
            ]
        },
        {
            "name":"芒种",
            "weather":[
                "火"
            ],
            "shouldEat":{
                "grain":[],
                "bean":[],
                "meat":[],
                "egg":[],
                "seafood":[],
                "veggie":["黄瓜","茄子"],
                "fruit":[],
                "nut":[],
                "drink":[]
            },
            "shouldNotEat":["羊肉","狗肉","辣椒","花椒","牛肉","鸡肉","鹅肉","胡椒","韭菜"],
            "exercise":[
                "每天适时的习练太极或静坐观照呼吸宜以息心火，宁心神。"
            ],
            "healthPolicy":[
                "祛湿",
                "养肝",
                "补肾"
            ],
            "accuPoint":[
                "太白穴",
                "阴陵泉",
                "水分穴",
                "曲池穴"
            ],
            "meridian":[
                "手少阴心经"
            ],
            "meridianMethod":"具体方法：可平坐亦可站立，手握空拳，自臀部环跳穴开始，沿大腿外侧从上往下敲打至外脚踝上方为一次，每天敲左右大腿各100次。力度要适中，可随时随地进行操作，不必拘泥。",
            "tips":[
                "多喝荷叶茶。干荷叶在药房和超市都能买到，取适量用开水泡5分钟就可以。荷叶有清心火、平肝火、泻脾火、降肺火以及清热养神、降压利尿、敛液止汗、止血固精等功效。",
                "芒种情绪小贴士：口中言少，心头事少，肚中食少，自然睡少。",
                "老年人热天消化液分泌减少，心脑血管 不同程度地硬化，饮食更宜清补为主。",
                "芒种养生要根据季节的气候特征，在精神调养上应保持愉快的心态，忌恼怒、忧郁。",
                "要晚睡早起，适当地接受阳光照射，以顺应阳气的充盛，利于气血的运行，振奋精神。 ",
                "在芒种节气里要注意增强体质，避免季节性疾病和传染病，如中暑、腮腺炎、水痘等。"
            ]
        },
        {
            "name":"夏至",
            "weather":[
                "火"
            ],
            "shouldEat":{
                "grain":[],
                "bean":[],
                "meat":[],
                "egg":[],
                "seafood":[],
                "veggie":["菜花","西葫芦"],
                "fruit":[],
                "nut":[],
                "drink":[]
            },
            "shouldNotEat":["羊肉","狗肉","辣椒","花椒","牛肉","鸡肉","鹅肉","胡椒","韭菜"],
            "exercise":[
                "每天适时的习练太极或静坐观照呼吸宜以息心火，宁心神。"
            ],
            "healthPolicy":[
                "养心",
                "补脾",
                "祛湿"
            ],
            "accuPoint":[
                "神门穴",
                "少府穴",
                "少海穴",
                "极泉穴",
                "少府穴"
            ],
            "meridian":[
                "手少阴心经"
            ],
            "meridianMethod":"具体方法：可平坐亦可站立，手握空拳，自臀部环跳穴开始，沿大腿外侧从上往下敲打至外脚踝上方为一次，每天敲左右大腿各100次。力度要适中，可随时随地进行操作，不必拘泥。",
            "tips":[
                "如何知道自己的心脏好不好呢？看大拇指的指肚是否饱满、充实，用一只手的拇指去摁压另一只手的拇指，用力摁下去再放开，看看拇指会不会有一个凹陷，能否很快弹起来，拇指肚的回弹力越强，代表心肺功能越好。",
                "夏至是阳气最旺的时节，养生要顺应夏季阳盛于外的特点，注意保护阳气。",
                "夏至起是真正的炎热到来，人体出汗量远远大如其他节气。尤其要注意起居和饮食方面的调理。",
                "夏至与心气相通，夏季多汗则易使心气换散，因此必须把握时令与脏腑的关系，有目的地补充心脏所消耗的‘能量，以保护心气，建议更要合理安排午休时间",
                "夏至宜晚睡早起，并利用午休来弥补夜晚的睡眠不足。对于老弱者，则应早睡早起，尽量保持每天有7小 时的睡眠时间。",
                "夏至是一个很重要的时刻，“夏至养一年”是说如果人们在夏至时刻注意保养一下，就能使这一年之间有一个很好的转接和交接，拥有一个更好的生活状态、健康状态及心理状态。",
                "夏至后，酷暑天气时常出现。俗话说“夏至一阴生”，是说在此节气中，尽管天气炎热，可阴气已开始生长，致使人显得极其脆弱，易患各种疾病。"
            ]
        },
        {
            "name":"小暑",
            "weather":[
                "火"
            ],
            "shouldEat":{
                "grain":[],
                "bean":[],
                "meat":[],
                "egg":[],
                "seafood":[],
                "veggie":["鱼腥草","西红柿"],
                "fruit":[],
                "nut":[],
                "drink":[]
            },
            "shouldNotEat":["羊肉","狗肉","辣椒","花椒","牛肉","鸡肉","鹅肉","胡椒","韭菜"],
            "exercise":[
                "每天适时的习练太极或静坐观照呼吸宜以息心火，宁心神。"
            ],
            "healthPolicy":[
                "祛湿",
                "补肾"
            ],
            "accuPoint":[
                "关元穴",
                "气海穴",
                "中脘穴",
                "承山穴",
                "足三里"
            ],
            "meridian":[
                "手少阴心经"
            ],
            "meridianMethod":"具体方法：可平坐亦可站立，手握空拳，自臀部环跳穴开始，沿大腿外侧从上往下敲打至外脚踝上方为一次，每天敲左右大腿各100次。力度要适中，可随时随地进行操作，不必拘泥。",
            "tips":[
                "小暑养生易喝姜茶。夏季很多冷气，饮食也重冰冷食物，加上活动量减少，体内容易滞留湿气，建议可以于饮食中加入辛香料、下午喝杯黑糖姜茶来化解身体寒气。煮过后的黑糖姜茶可补中益气、健脾胃，暖胃功效更佳。",
                "此时节人体内经络阳热气也开始旺盛，轻拍双腿，促进血液循环，将体内寒湿邪气赶走，让手脚不再冷冰冰。拍腿时，只要舒服地坐着或站着，用掌心从脚踝往上，轻拍双腿前后、内外侧。",
                "时至小暑，天气已经很热，人易感心烦不安，疲倦乏力，在自我养护和锻炼时，我们应按夏季为心所主而顾护心阳，平心静气，确保心脏机能的旺盛。",
                "如喜过则伤心，在情志方面，喜为心之志，“喜”在不过的情况下，舒缓紧张的情绪，使心情舒畅气血和缓。故夏季养生，重点要突出“心静”二字。",
                "睡眠时不宜扇类送风，有空调的房间，室内外温差不宜过大，更不宜夜晚露宿。",
                "夏季气候炎热，人的消化功能相对较弱， 因此，饮食宜清淡不宜肥甘厚味，要多食杂粮以寒其体。"
            ]
        },
        {
            "name":"大暑",
            "weather":[
                "火"
            ],
            "shouldEat":{
                "grain":[],
                "bean":[],
                "meat":[],
                "egg":[],
                "seafood":[],
                "veggie":["绿豆芽","油菜"],
                "fruit":[],
                "nut":[],
                "drink":[]
            },
            "shouldNotEat":["羊肉","狗肉","辣椒","花椒","牛肉","鸡肉","鹅肉","胡椒","韭菜"],
            "exercise":[
               "每天适时的习练太极或静坐观照呼吸宜以息心火，宁心神。"
            ],
            "healthPolicy":[
                "清补",
                "养心",
                "祛湿"
            ],
            "accuPoint":[
                "鱼际穴",
                "足三里",
                "阴陵泉",
                "丰隆穴"
            ],
            "meridian":[
                "手少阴心经"
            ],
            "meridianMethod":"具体方法：可平坐亦可站立，手握空拳，自臀部环跳穴开始，沿大腿外侧从上往下敲打至外脚踝上方为一次，每天敲左右大腿各100次。力度要适中，可随时随地进行操作，不必拘泥。",
            "tips":[
                "防治阳暑，最好用砭石刮板刮痧。刮痧疗法是用刮痧板蘸清水在体表由上而下、由内向外反复刮动，为防治中阳暑，可在背后膀胱经以及肘窝、窝处刮痧。一般为20分钟左右。刮痧后要饮热水一杯。",
                 "大暑是一年中最热的节气，我们要以预防中暑为主，常收听当地天气预报，巧妙地避开最高气温段。",
                "大暑是心血管疾病、肾脏及泌尿系统疾病患者的一大危险关头。 所以心脏病、糖尿病和前列腺炎等患者，在此节气中要格外小心。",
                "大暑时节高温酷热，人们易动“肝火”，会产生心烦意乱、急躁焦虑等异常行为。这是“情绪中暑”。“情绪中暑”对身心健康危害甚大。特别是老年体弱者，由于情绪障碍时会造成心肌缺血、心律失常和血压升高，甚至会引发猝死。",
                "防治“情绪中暑'其一静心养生，越是天热越要“心静”，以避免不良刺激。其二是心理纳凉，可采用“心理暗示”法调整情绪，想象自己处于大自然之中，绿树摇曳、飞泉漱玉，使你心旷神怡、心平气和。",
                "大暑养生饮食宜以清为补，宜补 气清暑，宜健脾养胃，宜药粥进补。",
                "大暑是温度最高，阳气最盛时节，也是养生保健“冬病夏治”好时机，比如根据宿疾服食温肾壮阳药、施用三伏贴等，细心调养，重点防治，宿疾也难作。"
            ]
        },
        {
            "name":"立秋",
            "weather":[
                "湿"
            ],
            "shouldEat":{
                "grain":[],
                "bean":[],
                "meat":[],
                "egg":[],
                "seafood":[],
                "veggie":["茭白","莴苣"],
                "fruit":[],
                "nut":[],
                "drink":[]
            },
            "shouldNotEat":["辣椒","胡椒","杏"],
            "exercise":[
                "可做健肺操。两手虎口交叉，食指尖下所筋骨凹陷处，左右手各按100下。可以预防与改善呼吸道不适，咳嗽、咽喉肿痛等症状。"
            ],    
            "healthPolicy":[
                "祛湿",
                "润肺"
            ],
            "accuPoint":[
                "迎香穴",
                "极泉穴",
                "四缝穴",
                "足三里"
            ],
            "meridian":[
                "手太阴肺经"
            ],
            "meridianMethod":"具体方法：可平坐亦可站立，手握空拳，以掌根自肩膀前侧开始向下沿手臂内侧外缘拍打，过肘横纹桡侧，继续向下直至手掌大鱼际，以上为一次。每天循经拍打左右手臂各100次。力度要适中，可随时随地进行操作，不必拘泥。",
            "tips":[
                "当天气较冷时要注意保温、及时添衣，经常使用冷水洗脸洗鼻，有助于预防感冒。",
                "立秋宜多食粥品，尤其是豆类的汤，可有效补充体内的蛋白质不足，此外豆类多具有健脾利湿的功能，正合此节气之用。",
                "立秋之后，天气昼热夜凉、雨水减少、天气干燥，气候寒热多变，易引起伤风感冒，旧病也易复发，所以生活起居一定要注意。",
                "适当秋冬，秋天适当地让身体经受寒冷的考验，对机体是一种锻炼，能加强人体对疾病的抵抗能力。但一旦冻过了头便会事与愿违。",
                "秋燥防皲裂人秋以后，天气逐渐干燥，人的手、脚、脸若不注意保 护就会变得粗糙，皮肤弹性变小，以致产生皲裂。",
                "多食银耳、蜂蜜，注意要少吃辣椒、生姜等辛辣食物，烧烤也要少吃。",
                "中医认为立秋的养生要诀是，护阳养心防暑湿。具体来说要注意保护体内的阳气，要注意摄入适当的补养之物；要保证睡眠时间，有条件的都要午睡；要防“暑湿”。"
            ]
        },
        {
            "name":"处暑",
            "weather":[
                "湿"
            ],
            "shouldEat":{
                "grain":[],
                "bean":[],
                "meat":[],
                "egg":[],
                "seafood":[],
                "veggie":["白萝卜","冬瓜"],
                "fruit":[],
                "nut":[],
                "drink":[]
            },
            "shouldNotEat":["辣椒","胡椒","杏"],
            "exercise":[
                 "可做养肺操。按摩太渊穴，大姆指立起时有大筋竖起，在筋内侧凹陷处，摸起来有脉搏跳动之处，每日早晚各一次，每次100下。可以改善咽喉肿痛、失眠、多梦，以及皮肤不适的症状。"
            ],
            "healthPolicy":[
                "补脾",
                "滋阴",
                "祛湿"
            ],
            "accuPoint":[
                "迎香穴",
                "肩井穴",
                "大椎穴",
                "神阙穴",
                "足三里"
            ],
            "meridian":[
                "手太阴肺经"
            ],
            "meridianMethod":"具体方法：可平坐亦可站立，手握空拳，以掌根自肩膀前侧开始向下沿手臂内侧外缘拍打，过肘横纹桡侧，继续向下直至手掌大鱼际，以上为一次。每天循经拍打左右手臂各100次。力度要适中，可随时随地进行操作，不必拘泥。",
            "tips":[
                "肚脐是人身要害，夏天的暑热让人们对肚脐的保暖不够，这个时节可适当加强养护。先将双手掌心搓热，然后上下重叠放在肚脐上，按顺时针和逆时针方向分别揉按。",
                "处暑节气正是处在由热转凉的交替时期，自然界的阳气由疏泄趋向收敛，人体内阴阳之气的盛衰也随之转换，此时起居作息也要相应地调整，要早睡早起。",
                "秋天主“收”，因此，情绪要慢慢收敛，凡事不躁不亢奋，也不畏缩郁结。",
                "秋天要多吃些滋阴润燥的食物,避免燥邪伤害。少摄取辛辣、多增加酸性食物，以加强肝脏功能。",
                "在运动上：秋天，秋高气爽，适合户外运动。可根据个人的体质，做一些登山、慢跑、郊游等户外运动。但要多注意滋脾补筋。"
            ]
        },
        {
            "name":"白露",
            "weather":[
                "湿"
            ],
            "shouldEat":{
                "grain":[],
                "bean":[],
                "meat":[],
                "egg":[],
                "seafood":[],
                "veggie":["鸡毛菜","百合"],
                "fruit":[],
                "nut":[],
                "drink":[]
            },
            "shouldNotEat":["辣椒","胡椒","杏"],
            "exercise":[
                "秋季可以做健肠操。一手伸直向前，另一手握拳，轻敲手臂由手腕到肩膀处，约50-100下，再换另一边。可以改善过敏、皮肤、便秘症状。"
            ],
            "healthPolicy":[
                "润肺",
                "滋阴"
            ],
            "accuPoint":[
                "肾俞穴",
                "关元穴",
                "神阙穴",
                "足三里"
            ],
            "meridian":[
                "手太阴肺经"
            ],
            "meridianMethod":"具体方法：可平坐亦可站立，手握空拳，以掌根自肩膀前侧开始向下沿手臂内侧外缘拍打，过肘横纹桡侧，继续向下直至手掌大鱼际，以上为一次。每天循经拍打左右手臂各100次。力度要适中，可随时随地进行操作，不必拘泥。",
            "tips":[
                "从白露开始，凉意渐浓。晚上坚持用温水泡脚15到30分钟，水没过脚腕，泡到身体微微发热最好。泡脚的同时把耳朵和腰部搓热，肾开窍于耳，搓热耳朵能有效补养肾气。",
                "白露身不露，寒露脚不露”，随着天气转凉逐渐增添衣服；但添衣不能太多太快。",
                "秋季是腹泻多发季节，应特别注意腹部保暖。",
                "在白露节气中要避免鼻腔疾病、哮喘病和支气管病的发生。",
                "进入秋季容易出现低沉甚至抑郁的情绪，应注意心理养生，保持愉快的心情，笑可以使肺吸入足量的清气，呼出浊气，加速血脉运行，能使心肺的气血调和。",
                "老弱者和身体虚寒的人群，起床后应适当添件薄衣，护好腹部、脚部和肩膀等关键部位，特别是心脑血管病患者、老慢支患者和关节病患者更莫盲目“秋冻”，以免旧病复发。"
            ]
        },
        {
            "name":"秋分",
            "weather":[
                "湿"
            ],
            "shouldEat":{
                "grain":[],
                "bean":[],
                "meat":[],
                "egg":[],
                "seafood":[],
                "veggie":["扁豆","小白菜"],
                "fruit":[],
                "nut":[],
                "drink":[]
            },
            "shouldNotEat":["辣椒","胡椒","杏"],
            "exercise":[
                 "可做养肺操。按摩太渊穴，大姆指立起时有大筋竖起，在筋内侧凹陷处，摸起来有脉搏跳动之处，每日早晚各一次，每次100下。可以改善咽喉肿痛、失眠、多梦，以及皮肤不适的症状。" 
            ],
            "healthPolicy":[
                "润肺",
                "滋阴"
            ],
            "accuPoint":[
                "太白穴",
                "天突穴"
            ],
            "meridian":[
                "手太阴肺经"
            ],
            "meridianMethod":"具体方法：可平坐亦可站立，手握空拳，以掌根自肩膀前侧开始向下沿手臂内侧外缘拍打，过肘横纹桡侧，继续向下直至手掌大鱼际，以上为一次。每天循经拍打左右手臂各100次。力度要适中，可随时随地进行操作，不必拘泥。",
            "tips":[
                "梨是润肺最好的选择。一般人生吃就行，小孩或是脾胃弱、体质虚寒的人最好蒸熟后吃。老年人在食疗上可适当选择些补气血的食物，比如大枣、枸杞等。",
                "秋分这一天昼夜平分。人们在养生中也应本着阴阳平衡的规律，使机体保持“阴平阳秘”的原则，阴阳所在不可出现偏颇。",
                "秋季气候渐转干燥，日照减少，气温渐降，人们的情绪未免有些垂暮之感，所以这时人们应保持神志安宁，减缓秋肃杀之气对人体的影响，收敛神气，以适应秋天容平之气。",
                "金秋季节时，天高气爽，是开展各种运动锻炼的好时机，登山、慢跑、散步等。在进行 “动功”锻炼的同时，可配合“静功”，如六字诀等，动静结合，则可达到心身康泰之功效。",
                "秋季要特别重视 保养内守之阴气,凡起居、饮食、精神、 运动等方面调摄皆不能离开“养收”这一原则。",
                "秋天万物枯败，一片昏黄，易使情绪受到消极影响，产生“悲秋”情绪。可多穿艳丽色彩的衣服、多晒太阳，多补充富含维生素B的食物，都有助于改善情绪。"
            ]
        },
        {
            "name":"寒露",
            "weather":[
                "燥"
            ],
            "shouldEat":{
                "grain":[],
                "bean":[],
                "meat":[],
                "egg":[],
                "seafood":[],
                "veggie":["金针菇","山药"],
                "fruit":[],
                "nut":[],
                "drink":[]
            },
            "shouldNotEat":["辣椒","胡椒","杏"],
            "exercise":[
                 "可做养肺操。按摩太渊穴，大姆指立起时有大筋竖起，在筋内侧凹陷处，摸起来有脉搏跳动之处，每日早晚各一次，每次100下。可以改善咽喉肿痛、失眠、多梦，以及皮肤不适的症状。"
            ],
            "healthPolicy":[
                "补脾",
                "补肾",
                "养肝"
            ],
            "accuPoint":[
                "太溪穴",
                "太冲穴",
                "太白穴"
            ],
            "meridian":[
                "手太阴肺经"
            ],
            "meridianMethod":"具体方法：可平坐亦可站立，手握空拳，以掌根自肩膀前侧开始向下沿手臂内侧外缘拍打，过肘横纹桡侧，继续向下直至手掌大鱼际，以上为一次。每天循经拍打左右手臂各100次。力度要适中，可随时随地进行操作，不必拘泥。",
            "tips":[
                "寒露“热水泡脚，胜吃补药”。",
                "寒露肩周炎来袭，多吃木瓜，丝瓜，韭菜，山楂，当归等理气，活血，通络，强筋作用的食物。不宜吃葱蒜等刺激性食物，损人神气。",
                "寒露时节，气候干燥，应多多保养头发。",
                "到了寒露，则露水增多，且气温更低。有些地区会出现霜冻，空气干燥，感冒病毒的致病力增强。应注意保暖，预防感冒。",
                "寒露时节，很多疾病的发生会危及老年人的生命，其中最应警惕的是心脑血管疾病。另外，中风、老年慢性支气管炎复发、 哮喘病复发、肺炎等疾病也严重地威胁着老年人的生命安全。",
                "据统计，老慢支病人感冒后90%以上会导致急性发作，因此要采取综合措施，积极预防感冒。寒露节气，老年人合理地安排好日常的起居生活，对身体的健康有着重要作用。",
                "寒露时节，最容易诱发呼吸系统、消化系统的疾病。此时的气候实际上是夏秋暑热与秋凉干燥的交替，最容易患上季节交换的感胃发热。"
            ]
        },
        {
            "name":"霜降",
            "weather":[
                "燥"
            ],
            "shouldEat":{
                "grain":[],
                "bean":[],
                "meat":[],
                "egg":[],
                "seafood":[],
                "veggie":["洋葱","黄花菜"],
                "fruit":[],
                "nut":[],
                "drink":[]
            },
            "shouldNotEat":["辣椒","胡椒","杏"],
            "exercise":[
                "多动脚趾可健胃，可用脚趾抓地、脚趾取物、按摩脚趾的方式锻炼。"
            ],
            "healthPolicy":[
                "补脾",
                "养胃"
            ],
            "accuPoint":[
                "合谷穴",
                "大椎穴",
                "肺俞穴",
                "尺泽穴",
                "足三里"
            ],
            "meridian":[
                "手太阴肺经"
            ],
            "meridianMethod":"具体方法：可平坐亦可站立，手握空拳，以掌根自肩膀前侧开始向下沿手臂内侧外缘拍打，过肘横纹桡侧，继续向下直至手掌大鱼际，以上为一次。每天循经拍打左右手臂各100次。力度要适中，可随时随地进行操作，不必拘泥。",
            "tips":[
                "从霜降开始，气候逐渐寒冷，根据中医养生学的观点，秋要进补，俗话说：“补冬不如补霜降。”秋补可以适当多吃些羊肉和兔肉。",
                "霜降时节，天气转冷，早晚起居要注意保暖，尤其是腹部的保暖。",
                "霜降时节，人体脾脏功能处于旺盛时期，由于脾胃功能过于旺盛，易导致慢性胃炎、 十二指肠溃疡病复发，此类病人要坚持定时定量进餐，食物冷暖适宜。",
                "患有“老寒腿”的中老年人，这时也应该注意保暖和进行适当的锻炼，如打太极拳、慢跑等。",
                "霜降节气，应以淡补为原则，并且要补血气以养胃。"
            ]
        },
        {
            "name":"立冬",
            "weather":[
                "燥"
            ],
            "shouldEat":{
                "grain":[],
                "bean":[],
                "meat":[],
                "egg":[],
                "seafood":[],
                "veggie":["空心菜","海带"],
                "fruit":[],
                "nut":[],
                "drink":[]
            },
            "shouldNotEat":["鸭蛋","鸭血","田螺","螃蟹","香蕉","柿子","柚子","西瓜","梨","苦瓜","冬瓜","荸荠","绿豆","海带","绿茶","花蛤","鸭肉","甲鱼","螺蛳","蚌","牡蛎"],
            "exercise":[
                  "暖暖腰部活肾脏。先将两手对搓至手心热后，分别放在腰部两侧，手掌贴着皮肤，上下按摩腰部，直到有温热感为止，每次约200下左右。吸气时，加做缩肛运动，呼气时放鬆，反覆进行30次左右，都能起到健肾的效果。"
            ],
            "healthPolicy":[
                "补肾",
                "滋阴"
            ],
            "accuPoint":[
                "足三里",
                "关元穴",
                "气海穴",
                "神阙穴",
                "风门穴",
                "肾俞穴"
            ],
            "meridian":[
                "足少阴肾经"
            ],
            "meridianMethod":"具体方法：从足底脚心处（涌泉穴）开始拍打，然后循腿内侧向上，到大腿根以后再沿着腹部正中线两旁继续循经向上，直到锁骨以下。每次从下往上拍打左右各50遍，每日两次。",
            "tips":[
                "立冬保养肾脏的方法：冷水洗脸；温水刷牙；热水洗脚；温暖腰眼；吃黑色食物",
                "俗语说“立冬萝卜赛参汤，不劳医生开药方”，因此立冬后也宜多吃红、白、青等不同颜色的萝卜。",
                "立冬补冬。人在这个进补的最佳时期，进行食补，为抵御冬天的严寒补充元气。",
                "立冬之后常晒太阳，能起到壮人阳气、温通经脉的作用。",
                "立冬之后，冬季进补必须按照“春夏补阳、秋冬养阴”的原则进行，视机体阴阳的盛衰而进行调补。"
            ]
        },
        {
            "name":"小雪",
            "weather":[
                "燥"
            ],
            "shouldEat":{
                "grain":[],
                "bean":[],
                "meat":[],
                "egg":[],
                "seafood":[],
                "veggie":["黑木耳","南瓜"],
                "fruit":[],
                "nut":[],
                "drink":[]
            },
            "shouldNotEat":["鸭蛋","鸭血","田螺","螃蟹","香蕉","柿子","柚子","西瓜","梨","苦瓜","冬瓜","荸荠","绿豆","海带","绿茶","花蛤","鸭肉","甲鱼","螺蛳","蚌","牡蛎"],
            "exercise":[
                "每天坚持用大拇指按摩腰部，每次坚持按一百下的话，不仅能够缓解腰部酸痛，还能起到强肾纳气的效果。"                
            ],
            "healthPolicy":[
                "补肾",
                "补阳"
            ],
            "accuPoint":[
                "太溪穴",
                "足三里",
                "三阴交",
                "神门穴"
            ],
            "meridian":[
                "足少阴肾经",
                "足厥阴肝经"
            ],
            "tips":[
                "揉搓耳朵，对自身养肾很有益处的。",
                "在我国小雪节气是寒冷开始的标志。此节气的白天可以多进行户外体育运动,如登山、打球，以逐渐适应冬日的来临。",
                "唱歌也是秋日早冬时的一种锻炼方法，引吭高歌，能畅达神态，流通气血，对身心健康大有裨益。",
                "小雪时节，天气时常是阴冷晦暗的，此时人们的心情也会受其影响，应调节自己的心态，保持乐观，节喜制怒。"
            ]
        },
        {
            "name":"大雪",
            "weather":[
                "寒"
            ],
            "shouldEat":{
                "grain":[],
                "bean":[],
                "meat":[],
                "egg":[],
                "seafood":[],
                "veggie":["冬笋","香菇"],
                "fruit":[],
                "nut":[],
                "drink":[]
            },
            "shouldNotEat":["鸭蛋","鸭血","田螺","螃蟹","香蕉","柿子","柚子","西瓜","梨","苦瓜","冬瓜","荸荠","绿豆","海带","绿茶","花蛤","鸭肉","甲鱼","螺蛳","蚌","牡蛎"],
            "exercise":[
                "可做预防感冒操。按摩风池穴：位于脖子后枕骨下两侧凹陷处，左右各按摩100下。可预防及改善风寒感冒。"
            ],
            "healthPolicy":[
                "温补",
                "补肾"
            ],
            "accuPoint":[
                "中府穴",
                "关元穴",
                "太溪穴",
                "足三里"
            ],
            "meridian":[
                "足少阴肾经"
            ],
            "meridianMethod":"具体方法：从足底脚心处（涌泉穴）开始拍打，然后循腿内侧向上，到大腿根以后再沿着腹部正中线两旁继续循经向上，直到锁骨以下。每次从下往上拍打左右各50遍，每日两次。",
            "tips":[
                "大雪进补：“三杯茶”：黑茶——降脂降压；红茶——预防流感；乌龙茶——防止干燥。",
                "大雪进补：“三个肉”：羊肉——温胃御寒；鸽肉——壮体补肾；鱼肉——益智健脑。",
                "大雪节气后，天气越来越凉，保暖尤应加强。不要和衣而眠，脱衣而眠才可以很快消除疲劳，使身体的各器官都得到很好的休息。",
                "大雪节气，老年人摔伤以手腕、股骨等处骨折的居多，从预防的角度看，老年人在雪天应减少户外活动。",
                "天气寒冷使血管收缩，人们就会出现头痛头晕的症状，可见头部保暖非常重要。"
            ]
        },
        {
            "name":"冬至",
            "weather":[
                "寒"
            ],
            "shouldEat":{
                "grain":[],
                "bean":[],
                "meat":[],
                "egg":[],
                "seafood":[],
                "veggie":["卷心菜","茴香苗"],
                "fruit":[],
                "nut":[],
                "drink":[]
            },
            "shouldNotEat":["鸭蛋","鸭血","田螺","螃蟹","香蕉","柿子","柚子","西瓜","梨","苦瓜","冬瓜","荸荠","绿豆","海带","绿茶","花蛤","鸭肉","甲鱼","螺蛳","蚌","牡蛎"],
            "exercise":[
                 "可做调养气血操。两手握拳后打开，连续20次，再用大姆指与食指逐一按摩左右手的手指头的两侧甲床处，即为井穴，每根手指头各5下。可调养气血，提振精神。"
            ],
            "healthPolicy":[
                "补肾",
                "补阳"
            ],
            "accuPoint":[
                "神阙穴",
                "关元穴",
                "肾俞穴",
                "至阳穴",
                "足三里"
            ],
            "meridian":[
                "足少阴肾经"
            ],
            "meridianMethod":"具体方法：从足底脚心处（涌泉穴）开始拍打，然后循腿内侧向上，到大腿根以后再沿着腹部正中线两旁继续循经向上，直到锁骨以下。每次从下往上拍打左右各50遍，每日两次。",
            "tips":[
                "冬至可多吃坚果。坚果大多有补肾健脑、强心健体作用，可以滋补肾脏，而冬季养生首重养肾，肾的功能强健，自然可调节身体机能。",
                "冬至老年人的饮食保健要注意：食宜多样，谷、果、肉、蔬合理搭配，适当选用高钙食品，食宜清淡。",
                "冬至是一年中天地阴阳气运转接的关键时刻之一，也是人体内阴阳气转接的关键时刻。此时阴盛阳衰，所以中医养生理论特别重视冬季进补。",
                "冬至也是冬季最寒冷的一段时间的开始，冬至过后，人们开始“数九”。因此，冬至时节的艾灸仍以补阳驱寒为主。"
            ]
        },
        {
            "name":"小寒",
            "weather":[
                "寒"
            ],
            "shouldEat":{
                "grain":[],
                "bean":[],
                "meat":[],
                "egg":[],
                "seafood":[],
                "veggie":["大白菜","蒜苔"],
                "fruit":[],
                "nut":[],
                "drink":[]
            },
            "shouldNotEat":["鸭蛋","鸭血","田螺","螃蟹","香蕉","柿子","柚子","西瓜","梨","苦瓜","冬瓜","荸荠","绿豆","海带","绿茶","花蛤","鸭肉","甲鱼","螺蛳","蚌","牡蛎"],
            "exercise":[
                 "每天坚持用大拇指按摩腰部，每次坚持按一百下的话，不仅能够缓解腰部酸痛，还能起到强肾纳气的效果。" 
            ],
            "healthPolicy":[
                "补肾",
                "补脾"
            ],
            "accuPoint":[
                "百会穴",
                "膻中穴",
                "气海穴",
                "劳宫穴",
                "涌泉穴"
            ],
            "meridian":[
                "足少阴肾经"
            ],
            "meridianMethod":"具体方法：从足底脚心处（涌泉穴）开始拍打，然后循腿内侧向上，到大腿根以后再沿着腹部正中线两旁继续循经向上，直到锁骨以下。每次从下往上拍打左右各50遍，每日两次。",
            "tips":[
                "小寒节气养生保暖：出门前和睡前别洗头。",
                "小寒节气养生饮食：宜减甘增苦，少食辣火锅。",
                "小寒正值 “三九”前后，在此节气里，患心脏病和高血压病的人往往会病情加重，患“中风”者增多。所以老年人的保暖工作一定要做好。",
                "小寒要特别注意在日常饮食中多食用一些温热食物以补益身体，防御寒冷气候对人体的侵袭。",
                "小寒天气寒冷，各种药膳火锅成了消寒壮热的美味佳肴，更要注意合理进补，忌暴饮暴食，饥饱寒热无度。",
                "话说“冬练三九”，但小寒时节的运动原则是，一要在日出后才开始锻炼，二是准备运动不可马虎，应待身体暖和后再脱衣锻炼。"
            ]
        },
        {
            "name":"大寒",
            "weather":[
                "寒"
            ],
            "shouldEat":{
                "grain":[],
                "bean":[],
                "meat":[],
                "egg":[],
                "seafood":[],
                "veggie":["土豆","大葱"],
                "fruit":[],
                "nut":[],
                "drink":[]
            },
            "shouldNotEat":["鸭蛋","鸭血","田螺","螃蟹","香蕉","柿子","柚子","西瓜","梨","苦瓜","冬瓜","荸荠","绿豆","海带","绿茶","花蛤","鸭肉","甲鱼","螺蛳","蚌","牡蛎"],
            "exercise":[
                  "暖暖腰部活肾脏。先将两手对搓至手心热后，分别放在腰部两侧，手掌贴着皮肤，上下按摩腰部，直到有温热感为止，每次约200下左右。呼气时，加做缩肛运动，吸气时放鬆，反覆进行30次左右，都能起到健肾的效果。"
            ],
            "healthPolicy":[
                "补脾",
                "祛湿",
                "养肝"
            ],
            "accuPoint":[
                "照海穴",
                "太溪穴",
                "三阴交穴"
            ],
            "meridian":[
                "足少阴肾经"
            ],
            "meridianMethod":"具体方法：从足底脚心处（涌泉穴）开始拍打，然后循腿内侧向上，到大腿根以后再沿着腹部正中线两旁继续循经向上，直到锁骨以下。每次从下往上拍打左右各50遍，每日两次。",
            "tips":[
                "大寒可利用阳光来保养身体。当然晒太阳也不是越多越好，应选择上午10点前或下午3点后的“黄金时段”，每天晒30至60分钟为宜。",
                "大寒宜进行足浴。睡前用温热水洗脚，可消除疲劳，之后可进行足底按摩以活血舒筋。",
                "大寒是一年当中最寒冷的时段，同时也是一年中最后一个节气，此后阳气便渐渐升发，由冬藏转为春生。因此，这一时节的艾灸要补肾调肝为主，既要进一步补益阳气，又要逐渐注意肝气的调畅，迎接春季的到来。",
                "大寒节气的饮食，仍应遵守保阴潜阳的原则，宜减咸增苦以养心气，使肾气坚固。食物的味道可适当浓一些，保持一定的热量。",
                "有心脑血管病史的老年人在大寒中尤其要注意保暖，早晚要少出门，避免感冒。",
                "在冬季，对脚部的呵护尤为重要，平时除了要加强锻炼外，上下楼尽量不要乘电梯，外出尽可能步行。"
            ]
        }
        
    ]
}